[

{   
    "id": 0,
    "question": "1???",
    "choices": [{
            "id": 1,
            "text": "Correct"
        }, {
            "id": 2,
            "text": "Choice 2"
        }, {
            "id": 3,
            "text": "Choice 3"
        }, {
        	"id": 4,
            "text": "Choice 4"
        }],
    "correctAnswer": "1"
},
{
    "id": 1,
    "question": "2???",
    "choices": [{
            "id": 1,
            "text": "Choice 1"
        }, {
            "id": 2,
            "text": "Correct"
        }, {
            "id": 3,
            "text": "Choice 3"
        }, {
        	"id": 4,
            "text": "Choice 4"
        }],
    "correctAnswer": "2"
},
{
    "id": 2,
    "question": "3???",
    "choices": [{
            "id": 1,
            "text": "Choice 1"
        }, {
            "id": 2,
            "text": "Choice 2"
        }, {
            "id": 3,
            "text": "Choice 3"
        }, {
        	"id": 4,
            "text": "Correct"
        }],
    "correctAnswer": "4"
},
{
    "id": 3,
    "question": "4???",
    "choices": [{
            "id": 1,
            "text": "Choice 1"
        }, {
            "id": 2,
            "text": "Choice 2"
        }, {
            "id": 3,
            "text": "Correct"
        }, {
            "id": 4,
            "text": "Choice 4"
        }],
    "correctAnswer": "3"
},
{
    "id": 4,
    "question": "5???",
    "choices": [{
            "id": 1,
            "text": "Choice 1"
        }, {
            "id": 2,
            "text": "Correct"
        }, {
            "id": 3,
            "text": "Choice 3"
        }, {
            "id": 4,
            "text": "Choice 4"
        }],
    "correctAnswer": "2"
}

]